"Stock Item Code","Stock Group","Stock Sub Group","Stock Description",effective_date,Price
2399049,LUBES,"ENGINE OIL","HP AUTO SHAKTI 20W 50 -1 L",10/04/2018,60
2399093,LUBES,"ENGINE OIL","HP AUTO SHAKTI 20W 50 - 0.5 L",10/04/2018,60
2399144,LUBES,"ENGINE OIL","HP AUTO SHAKTI 20W 50 - 3 L",10/04/2018,60
IOCL0006,LUBES,"ENGINE OIL","KINETIC ULTRA 2T OIL",10/04/2018,60
IOCL0007,LUBES,"GEAR OIL","SERVO 2W GEAR OIL",10/04/2018,60
