"Stock Item Code","Stock Group","Stock Sub Group","Stock Description",effective_date,Price
7211251,LUBES,"ENGINE OIL","MAK 4T SCOOTECH NXT - 800 ML",30/06/2018,334
7211262,LUBES,"ENGINE OIL","MAK 4T SCOOTECH NXT - 900 ML",30/06/2018,374
7211953,LUBES,"ENGINE OIL","MAK EVOLV 10 W 40 - 3.5 L CASE",30/06/2018,1689
7211957,LUBES,"ENGINE OIL","MAK EVOLV 10 W 40 - 1 L CASE",30/06/2018,488
7211983,LUBES,"ENGINE OIL","MAK EVOLV 10 W 40 - 4 L CASE",30/06/2018,1908
7212153,LUBES,"ENGINE OIL","MAK EVOLV 0 W 20 - 3.5 L CASE",30/06/2018,1851
7212157,LUBES,"ENGINE OIL","MAK EVOLV 0 W 20 - 1 L CASE",30/06/2018,535
7212183,LUBES,"ENGINE OIL","MAK EVOLV 0 W 20 - 4 L CASE",30/06/2018,2100
7215457,LUBES,"ENGINE OIL","MAK TATA MOTORS PCD CLASSIC 20W40 - 1 L",30/06/2018,251
7215484,LUBES,"ENGINE OIL","MAK TATA MOTORS PCD CLASSIC 20W40 - 5 L",30/06/2018,1211
7215753,LUBES,"ENGINE OIL","MAK PETROL ZENITH - 3.5 L",30/06/2018,1339
7215757,LUBES,"ENGINE OIL","MAK PETROL ZENITH - 1 L",30/06/2018,392
7215783,LUBES,"ENGINE OIL","MAK PETROL ZENITH - 4 L",30/06/2018,1519
7216153,LUBES,"ENGINE OIL","MAK CLASSIC 20W50 (SG) - 3.5 L",30/06/2018,1030
7216154,LUBES,"ENGINE OIL","MAK CLASSIC 20W50 (SG) - 3 L",30/06/2018,880
7216157,LUBES,"ENGINE OIL","MAK CLASSIC 20W50 (SG) - 1 L",30/06/2018,300
7216158,LUBES,"ENGINE OIL","MAK CLASSIC 20W50 (SG) - 500 ML",30/06/2018,154
7216184,LUBES,"ENGINE OIL","MAK CLASSIC 20W50 (SG) - 5 L",30/06/2018,1444
7216253,LUBES,"ENGINE OIL","MAK ELITE 15W40 (SJ) - 3.5 L",30/06/2018,1072
7216254,LUBES,"ENGINE OIL","MAK ELITE 15W40 (SJ) - 3 L",30/06/2018,915
7216257,LUBES,"ENGINE OIL","MAK ELITE 15W40 (SJ) - 1 L",30/06/2018,309
7216258,LUBES,"ENGINE OIL","MAK ELITE 15W40 (SJ) - 500 ML",30/06/2018,157
7216283,LUBES,"ENGINE OIL","MAK ELITE 15W40 (SJ) - 4 L",30/06/2018,1203
7216353,LUBES,"ENGINE OIL","MAK SUPREME 10W30 (SM) - 3.5 L",30/06/2018,1172
7216358,LUBES,"ENGINE OIL","MAK SUPREME 10W30 (SM) - 500 ML",30/06/2018,178
7216440,LUBES,"ENGINE OIL","GM MAK PETROL GEN ENG OIL - 3.25 L",30/06/2018,768
7216441,LUBES,"ENGINE OIL","GM MAK PETROL GEN ENG OIL - 3.75 L",30/06/2018,883
7216457,LUBES,"ENGINE OIL","GM MAK PETROL GEN ENG OIL - 1 L",30/06/2018,239
7240044,LUBES,"INDUSTRIAL OIL","L&T MAK CD 10 W - 20 L DRUM",28/06/2018,87.8
7243726,LUBES,"ENGINE OIL","MAK LTK 15W40 - 13 L",28/06/2018,87.8
7243750,LUBES,"ENGINE OIL","MAK LTK 15W40 - 25 L",28/06/2018,87.8
7243755,LUBES,"ENGINE OIL","MAK LTK 15W40 - 25 L",28/06/2018,87.8
7243834,LUBES,"ENGINE OIL","MAK LTK 30 - 15 L",28/06/2018,87.8
7243896,LUBES,"ENGINE OIL","MAK LTK 30 - 7 L",28/06/2018,87.8
7245244,LUBES,"ENGINE OIL","MAK GOLD - 20 L PAIL",30/06/2018,4977
7245254,LUBES,"ENGINE OIL","MAK GOLD - 3 L",30/06/2018,786
7245257,LUBES,"ENGINE OIL","MAK GOLD - 1 L",30/06/2018,261
7245258,LUBES,"ENGINE OIL","MAK GOLD - 500 ML",30/06/2018,138
7245277,LUBES,"ENGINE OIL","MAK GOLD - 10 L PAIL",30/06/2018,2506
7245284,LUBES,"ENGINE OIL","MAK GOLD - 5 L CASE",30/06/2018,1285
7245296,LUBES,"ENGINE OIL","MAK GOLD - 7 L PAIL",30/06/2018,1799
7245344,LUBES,"ENGINE OIL","MAK MG 20W40 (CF) - 20 L PAIL",30/06/2018,5190
7245357,LUBES,"ENGINE OIL","MAK MULTIGRADE 20W40 - 1 L",30/06/2018,270
7245358,LUBES,"ENGINE OIL","MAK MULTIGRADE 20W40 - 500 ML",30/06/2018,140
7245377,LUBES,"ENGINE OIL","MAK MG 20W40 (CF) - 10 L PAIL",30/06/2018,2604
7245380,LUBES,"ENGINE OIL","MAK MG 20W40 (CF) - 7.5 L PAIL",30/06/2018,1987
7245384,LUBES,"ENGINE OIL","MAK MG 20W40 (CF) - 5 L CASE",30/06/2018,1339
7245453,LUBES,"ENGINE OIL","MAK PUMP - 3.5 L",28/06/2018,87.8
7245458,LUBES,"ENGINE OIL","MAK PUMP - 500 ML",28/06/2018,87.8
7245834,LUBES,"ENGINE OIL","MAK DIAMOND - 15 L PAIL",30/06/2018,4204
7245842,LUBES,"ENGINE OIL","MAK DIAMOND - 6 L PAIL",30/06/2018,1705
7245844,LUBES,"ENGINE OIL","MAK DIAMOND - 20 L PAIL",30/06/2018,5512
7245857,LUBES,"ENGINE OIL","MAK DIAMOND - 1 L",30/06/2018,292
7245858,LUBES,"ENGINE OIL","MAK DIAMOND - 500 M",30/06/2018,150
7245877,LUBES,"ENGINE OIL","MAK DIAMOND - 10 L",30/06/2018,2775
7245880,LUBES,"ENGINE OIL","MAK DIAMOND - 7.5 L PAIL",30/06/2018,2121
7245883,LUBES,"ENGINE OIL","MAK DIAMOND - 4 L",30/06/2018,1146
7245884,LUBES,"ENGINE OIL","MAK DIAMOND - 5 L CASE",30/06/2018,1424
7245944,LUBES,"ENGINE OIL","MAK GE - 20 L PAIL"," "
7245954,LUBES,"ENGINE OIL","MAK GE - 3 L"," "
7245957,LUBES,"ENGINE OIL","Mak GE - 1 L"," "
7245958,LUBES,"ENGINE OIL","Mak GE - 500 ML"," "
7245984,LUBES,"ENGINE OIL","MAK GE - 5 L"," "
7246057,LUBES,"ENGINE OIL","GM MAK GENUINE DIESEL ENGINE OIL - 1 L",30/06/2018,224
7246084,LUBES,"ENGINE OIL","GM MAK GENUINE DIESEL ENGINE OIL - 5 L",30/06/2018,1104
7246134,LUBES,"ENGINE OIL","MAK PLATINUM 15W40 - 15 L",30/06/2018,4704
7246157,LUBES,"ENGINE OIL","MAK PLATINUM 15W40 - 1 L",30/06/2018,325
7246158,LUBES,"ENGINE OIL","MAK PLATINUM - 500 ML",30/06/2018,165
7246177,LUBES,"ENGINE OIL","MAK PLATINUM 15W40 - 10 L",30/06/2018,3156
7246184,LUBES,"ENGINE OIL","MAK PLATINUM 15W40 - 5 L",30/06/2018,1601
7246254,LUBES,"ENGINE OIL","MAK AUTO XL - 3 L",30/06/2018,764
7246255,LUBES,"ENGINE OIL","MAK AUTO XL - 2.5 L CASE",30/06/2018,642
7246257,LUBES,"ENGINE OIL","Mak AUTO XL - 1 L",30/06/2018,257
7246258,LUBES,"ENGINE OIL","MAK AUTO XL - 500 ML",30/06/2018,136
7246377,LUBES,"ENGINE OIL","MAK D-GEN 15W40 - 10 L PAIL",30/06/2018,1426
7246444,LUBES,"ENGINE OIL","MAK BOAT XP - 20 L",30/06/2018,5050
7246484,LUBES,"ENGINE OIL","MAK BOAT XP - 5 L",30/06/2018,1274
7246544,LUBES,"ENGINE OIL","MAK GOLD PLUS - 20 L",30/06/2018,4948
7246557,LUBES,"ENGINE OIL","MAK GOLD PLUS - 1 L",30/06/2018,264
7246577,LUBES,"ENGINE OIL","MAK GOLD PLUS - 10 L",30/06/2018,2513
7246580,LUBES,"ENGINE OIL","MAK GOLD PLUS -  7.5 L",30/06/2018,1924
7246584,LUBES,"ENGINE OIL","MAK GOLD PLUS - 5 L",30/06/2018,1297
7247335,LUBES,"ENGINE OIL","MAK CHHAKADA XP - 1.2 L POUCH",28/06/2018,87.8
7247634,LUBES,"ENGINE OIL","MAK PLATINUM PLUS 15W40 - 15 L",30/06/2018,4953
7247644,LUBES,"ENGINE OIL","MAK PLATINUM PLUS 15W40 - 20 L",30/06/2018,6747
7247657,LUBES,"ENGINE OIL","MAK PLATINUM PLUS 15W40 - 1 L",30/06/2018,350
7247658,LUBES,"ENGINE OIL","MAK PLATINUM PLUS 15W40 - 500 ML",30/06/2018,178
7247677,LUBES,"ENGINE OIL","MAK PLATINUM PLUS 15W40 - 10 L",30/06/2018,3418
7247680,LUBES,"ENGINE OIL","MAK PLATINUM PLUS 15W40 - 7.5 L",30/06/2018,2570
7247684,LUBES,"ENGINE OIL","MAK PLATINUM PLUS 15W40 - 5 L",30/06/2018,1717
7248157,LUBES,"ENGINE OIL","GM MAK DIESEL ENGINE OIL CI4 15W40 - 1 L",30/06/2018,245
7248184,LUBES,"ENGINE OIL","GM MAK DIESEL ENGINE OIL CI4 15W40 - 5 L",30/06/2018,1205
7248344,LUBES,"ENGINE OIL","MAK TRAC MAGIC + - 20 L PLASTIC PAIL",28/06/2018,87.8
7248357,LUBES,"ENGINE OIL","MAK TRAC MAGIC + - 1 L CASE",28/06/2018,87.8
7248384,LUBES,"ENGINE OIL","MAK TRAC MAGIC + - 5 L CASE",28/06/2018,87.8
7248453,LUBES,"ENGINE OIL","MAK PUMP (HARIT) - 3.5 L"," "
7249153,LUBES,"ENGINE OIL","MAK GE ULTRA 15W40 - 3.5 L"," "
7249157,LUBES,"ENGINE OIL","MAK GE ULTRA 15W40 - 1 L"," "
7249158,LUBES,"ENGINE OIL","MAK GE ULTRA 15W40 - 500 ML"," "
7249184,LUBES,"ENGINE OIL","MAK GE ULTRA 15W40 - 5 L"," "
7249234,LUBES,"ENGINE OIL","MAK DIAMOND PLUS ( CH4) 15W40 - 15 L",30/06/2018,4460
7249244,LUBES,"ENGINE OIL","MAK DIAMOND PLUS ( CH4) 15W40 - 20 L",30/06/2018,5841
7249254,LUBES,"ENGINE OIL","MAK DIAMOND PLUS ( CH4) 15W40 - 3 L",30/06/2018,906
7249257,LUBES,"ENGINE OIL","MAK DIAMOND PLUS ( CH4) 15W40 - 1 L",30/06/2018,305
7249277,LUBES,"ENGINE OIL","MAK DIAMOND PLUS ( CH4) 15W40 - 10 L",30/06/2018,2948
7249280,LUBES,"ENGINE OIL","MAK DIAMOND PLUS ( CH4) 15W40 - 7.5 L",30/06/2018,2252
7249284,LUBES,"ENGINE OIL","MAK DIAMOND PLUS ( CH4) 15W40 - 5 L",30/06/2018,1500
7249357,LUBES,"ENGINE OIL","MAK DZL ZENITH - 1 L CASE",30/06/2018,403
7249383,LUBES,"ENGINE OIL","MAK DZL ZENITH - 4 L  CASE",30/06/2018,1465
7249384,LUBES,"ENGINE OIL","MAK DZL ZENITH - 5 L CASE",30/06/2018,1812
7249396,LUBES,"ENGINE OIL","MAK DZL ZENITH - 7 L",30/06/2018,2539
7249457,LUBES,"ENGINE OIL","MAK TATA MOTORS (PCD) CF4 - 1 L",30/06/2018,273
7249483,LUBES,"ENGINE OIL","MAK TATA MOTORS (PCD) CF4 - 4 L",30/06/2018,1042
7249484,LUBES,"ENGINE OIL","MAK TATA MOTORS (PCD) CF4 - 5 L",30/06/2018,1291
7249496,LUBES,"ENGINE OIL","MAK TATA MOTORS (PCD) CF4 - 7 L",30/06/2018,1807
7249554,LUBES,"ENGINE OIL","MAK TATA MOTORS (PCD) CH4 - 3 L",30/06/2018,852
7249557,LUBES,"ENGINE OIL","MAK TATA MOTORS (PCD) CH4 - 1 L",30/06/2018,287
7249580,LUBES,"ENGINE OIL","MAK TATA MOTORS (PCD) CH4 - 7.5 L",30/06/2018,2084
7249834,LUBES,"ENGINE OIL","MAK TATA MOTORS CH-4 15W40 - 15 L PAIL"," "
7249854,LUBES,"ENGINE OIL","MAK TATA MOTORS CH-4 15W40 - 3 L"," "
7249855,LUBES,"ENGINE OIL","MAK TATA MOTORS CH4 15W40 - 2.5 L"," "
7249857,LUBES,"ENGINE OIL","MAK TATA MOTORS CH4 15W40 - 1 L"," "
7249858,LUBES,"ENGINE OIL","MAK TATA MOTORS CH4 15W40 - 1/2 L"," "
7249877,LUBES,"ENGINE OIL","MAK TATA MOTORS CH-4 15W40 - 10 L PAIL"," "
7249934,LUBES,"ENGINE OIL","MAK TATA MOTORS CF4 GENUINE ENGINE OIL - 15 L"," "
7249955,LUBES,"ENGINE OIL","MAK TATA MOTORS CF4 GENUINE ENGINE OIL - 2.5 L"," "
7249957,LUBES,"ENGINE OIL","MAK TATA MOTORS CF4 GENUINE ENGINE OIL - 1 L"," "
7249977,LUBES,"ENGINE OIL","MAK TATA MOTORS CF4 GENUINE ENGINE OIL - 10 L"," "
7250034,LUBES,"ENGINE OIL","MAK TATA MOTORS CI4 PLUS 15W40 - 15 L"," "
7255854,LUBES,COOLANT,"MAK SUPER KOOL - 3 L"," "
7255857,LUBES,COOLANT,"MAK SUPER KOOL - 1 L"," "
7255858,LUBES,COOLANT,"MAK SUPER KOOL - 500 ML"," "
7255884,LUBES,COOLANT,"MAK SUPER KOOL - 5 L"," "
7255957,LUBES,COOLANT,"MAK REDI KOOL - 1 L"," "
7255958,LUBES,COOLANT,"MAK REDI KOOL - 500 ML"," "
7256057,LUBES,COOLANT,"MAK TATAMOTORS SUPER KOOL - 1 L"," "
7256058,LUBES,COOLANT,"MAK TATAMOTORS SUPER KOOL - 500 ML"," "
7256157,LUBES,COOLANT,"MAK TATA MOTORS REDIKOOL - 1 L"," "
7256158,LUBES,COOLANT,"MAK TATA MOTORS REDIKOOL - 500 ML"," "
7265157,LUBES,"ENGINE OIL","MAK AUTO GREEN - 1 L",30/06/2018,233
7265158,LUBES,"ENGINE OIL","MAK AUTO GREEN - 500 ML CASE",30/06/2018,121
7265249,LUBES,"ENGINE OIL","HERO 4T PLUS 10W30 - 900 ML",30/06/2018,259
7265251,LUBES,"ENGINE OIL","HERO 4T PLUS 10W30 - 800 ML",30/06/2018,234
7265357,LUBES,"ENGINE OIL","MAK 2T - 1 L",30/06/2018,255
7265358,LUBES,"ENGINE OIL","MAK 2T - 500 ML",30/06/2018,130
7265363,LUBES,"ENGINE OIL","MAK 2T - 40 ML",30/06/2018,13
7265366,LUBES,"ENGINE OIL","MAK 2T - 60 ML",30/06/2018,17
7265384,LUBES,"ENGINE OIL","MAK 2T - 5 L",30/06/2018,1246
7265385,LUBES,"ENGINE OIL","MAK 2T - 250 ML",30/06/2018,67
7265395,LUBES,"ENGINE OIL","MAK 2T - 20 ML",30/06/2018,8
7265657,LUBES,"ENGINE OIL","MAK 4T STALLION 20W50 - 1 L",30/06/2018,318
7265662,LUBES,"ENGINE OIL","MAK 4T STALLION 20W50 - 900 ML",30/06/2018,290
7265857,LUBES,"ENGINE OIL","MAK 4T PLUS SL 20W40 - 1 L",30/06/2018,315
7265862,LUBES,"ENGINE OIL","MAK 4T PLUS SL 20W40 - 900 ML",30/06/2018,287
7266757,LUBES,"ENGINE OIL","MAK 4T NXT - 1 L",30/06/2018,412
7266762,LUBES,"ENGINE OIL","MAK 4T NXT - 900 ML",30/06/2018,374
7266849,LUBES,"ENGINE OIL","HONDA 4 STROKE GENUINE ENGINE OIL - 900 ML",30/06/2018,270
7266851,LUBES,"ENGINE OIL","HONDA 4 STROKE GENUINE ENGINE OIL - 800 ML",30/06/2018,240
7266871,LUBES,"ENGINE OIL","HONDA 4 STROKE GENUINE ENGINE OIL - 1 L",30/06/2018,299
7266957,LUBES,"ENGINE OIL","MAK 4T ZIPP 10W30 - 1 L",30/06/2018,305
7266962,LUBES,"ENGINE OIL","MAK 4T ZIPP 10W30 - 900 ML",30/06/2018,275
7267351,LUBES,"ENGINE OIL","HONDA 4 STROKE GEO SJ 10W30 MB - 800 ML",30/06/2018,252
7267655,LUBES,"ENGINE OIL","MAK 4T ROYAL - 2.5 L CASE",30/06/2018,902
7267657,LUBES,"ENGINE OIL","MAK 4T ROYAL - 1 L CASE",30/06/2018,364
7267757,LUBES,"ENGINE OIL","MAK 4T GE SL 20W50 - 1 L"," "
7267758,LUBES,"ENGINE OIL","MAK 4T GE SL 20W50 - 500 ML"," "
7272025,LUBES,"GEAR OIL","MAK FRONT FORK OIL - 175 ML"," "
7272038,LUBES,"GEAR OIL","MAK FRONT FORK OIL - 350 ML"," "
7275124,LUBES,"GEAR OIL","MAK ATF A - 20 L"," "
7275157,LUBES,"GEAR OIL","MAK ATFA - 1 L"," "
7275158,LUBES,"GEAR OIL","MAK ATFA - 500 ML"," "
7275184,LUBES,"GEAR OIL","MAK ATF A - 5 L"," "
7310857,LUBES,"GEAR OIL","MAK SPIROL EP 80W90 - 1 L"," "
7310884,LUBES,"GEAR OIL","MAK SPIROL EP 80W90 - 5 L"," "
7311157,LUBES,"GEAR OIL","MAK TATA MOTORS SPIROL LL 80W90 - 1 L"," "
7311184,LUBES,"GEAR OIL","MAK TATA MOTORS SPIROL LL 80W90 - 5 L"," "
7315144,LUBES,"GEAR OIL","MAK SPIROL EP 90 - 20 L PAIL"," "
7315157,LUBES,"GEAR OIL","MAK SPIROL EP 90 - 1 L"," "
7315158,LUBES,"GEAR OIL","MAK SPIROL EP 90 - 500 ML"," "
7315184,LUBES,"GEAR OIL","MAK SPIROL EP 90 - 5 L"," "
7315244,LUBES,"GEAR OIL","MAK SPIROL EP 140 - 20 L PAIL"," "
7315257,LUBES,"GEAR OIL","MAK SPIROL EP 140 - 1 L"," "
7315258,LUBES,"GEAR OIL","MAK SPIROL EP 140 - 500 ML"," "
7315284,LUBES,"GEAR OIL","MAK SPIROL EP 140 - 5 L"," "
7315344,LUBES,"GEAR OIL","MAK TATA MOTORS AUTRAN II - 20 L PAIL"," "
7315757,LUBES,"GEAR OIL","MAK SPIROL EP 140 LT - 1 L"," "
7315784,LUBES,"GEAR OIL","MAK SPIROL EP 140 LT - 5 L"," "
7315857,LUBES,"GEAR OIL","MAK TATA SPIROL (PCD) AUTRAN II - 1 L"," "
7315858,LUBES,"GEAR OIL","MAK TATA SPIROL (PCD) AUTRAN II - 0.5 L"," "
7335157,LUBES,"GEAR OIL","MAK SPIROL 80W EP - 1 L"," "
7335184,LUBES,"GEAR OIL","MAK SPIROL 80W EP - 5 L"," "
7335257,LUBES,"GEAR OIL","MAK TATA SPIROL (PCD) 80W EP - 1 L"," "
7335283,LUBES,"GEAR OIL","MAK TATA SPIROL (PCD) 80W EP - 4 L"," "
7345450,LUBES,"GEAR OIL","GM MAK GENUINE REAR AXLE OIL - 25 L"," "
7346457,LUBES,"GEAR OIL","MAK SPIROL HD 85W140 - 1 L"," "
7346484,LUBES,"GEAR OIL","MAK SPIROL HD 85W140 - 5 L"," "
7347157,LUBES,"GEAR OIL","MAK TATA MOTORS SPIROL LL 85W140 - 1 L"," "
7347184,LUBES,"GEAR OIL","MAK TATA MOTORS SPIROL LL 85W140 - 5 L"," "
7347254,LUBES,"GEAR OIL","MAK TATA SPIROL (PCD) LL 85W140 - 3 L"," "
7347257,LUBES,"GEAR OIL","MAK TATA SPIROL (PCD) LL 85W140 - 1 L"," "
7480168,LUBES,GREASE,"MAK TATA MOTORS UNIVEX A - 500 GM"," "
7480169,LUBES,GREASE,"MAK TATA MOTORS UNIVEX A - 1 KG"," "
7480193,LUBES,GREASE,"MAK TATA MOTORS UNIVEX A - 2 KG"," "
7480668,LUBES,GREASE,"MAK UNIVEX  CD - 500 GM"," "
7480669,LUBES,GREASE,"MAK UNIVEX  CD - 1 KG"," "
7480693,LUBES,GREASE,"MAK UNIVEX  CD - 2 KG"," "
7480845,LUBES,GREASE,"MAK MP GREASE 3 - 18 KG"," "
7480868,LUBES,GREASE,"MAK MP GREASE 3-  500 GM"," "
7480869,LUBES,GREASE,"MAK MP GREASE 3 - 1 KG"," "
7480891,LUBES,GREASE,"MAK MP GREASE 3-  200 GM"," "
7480893,LUBES,GREASE,"MAK MP GREASE 3  - 2 KG"," "
7480894,LUBES,GREASE,"MAK MP GREASE 3 - 3 KG"," "
7480898,LUBES,GREASE,"MAK MP GREASE 3 - 5 KG"," "
7480968,LUBES,GREASE,"MAK WB GREASE - 500 GM"," "
7480969,LUBES,GREASE,"MAK WB SPECIAL - 1 KG"," "
7480993,LUBES,GREASE,"MAK WB SPECIAL - 2 KG"," "
7481192,LUBES,GREASE,"MAK WHITE GREASE - 100 GM"," "
7481230,LUBES,GREASE,"MAK LL GREASE 3 - 7 KG"," "
7481245,LUBES,GREASE,"MAK LL GREASE 3 - 18 KG"," "
7481268,LUBES,GREASE,"MAK LL GREASE 3 - 1/2 KG"," "
7481269,LUBES,GREASE,"MAK LL GREASE 3 - 1 KG"," "
7481293,LUBES,GREASE,"MAK LL GREASE 3  - 2 KG"," "
7481294,LUBES,GREASE,"MAK LL GREASE 3 - 3 KG"," "
7481298,LUBES,GREASE,"MAK LL GREASE 3 - 5 KG"," "
7482845,LUBES,GREASE,"MAK LANTHAX EP2 - 18 KG"," "
7672324,LUBES,"INDUSTRIAL OIL","MAK AMOCAM 320 - 20 L DRUM"," "
7672524,LUBES,"INDUSTRIAL OIL","MAK AMOCAM 460 - 20 L DRUM"," "
7677324,LUBES,"INDUSTRIAL OIL","MAK FREEZOL 68 - 20 L DRUM"," "
7678224,LUBES,"INDUSTRIAL OIL","L&T MAK HYDROL P 68 - 20 L DRUM"," "
7678424,LUBES,"INDUSTRIAL OIL","L&T MAK HYDROL P 100 - 20 L DRUM"," "
7678524,LUBES,"INDUSTRIAL OIL","MAK HYDROL 32 - 20 L DRUM"," "
7678924,LUBES,"INDUSTRIAL OIL","MAK HYDROL 46 - 20 L DRUM"," "
7679124,LUBES,"INDUSTRIAL OIL","MAK HYDROL 68 - 20 L DRUM"," "
7679184,LUBES,"INDUSTRIAL OIL","MAK HYDROL 68 - 5 L"," "
7683278,LUBES,"INDUSTRIAL OIL","MAK SHEROL B - 20 L DRUM"," "
7686024,LUBES,"INDUSTRIAL OIL","MAK HYDROL HLP 68 - 20 L DRUM"," "
7995537,LUBES,"BRAKE FLUID","MAK BRAKE FLUID - 100 ML"," "
7995558,LUBES,"BRAKE FLUID","MAK BRAKE FLUID - 500 ML"," "
7995585,LUBES,"BRAKE FLUID","MAK BRAKE FLUID - 250 ML"," "
7995637,LUBES,"BRAKE FLUID","MAK BRAKE FLUID XT SUPER DOT 4 - 100 ML"," "
7995658,LUBES,"BRAKE FLUID","MAK BRAKE FLUID XT SUPER DOT 4 - 500 ML (12 L)"," "
7995685,LUBES,"BRAKE FLUID","MAK BRAKE FLUID XT SUPER DOT 4 - 250 ML (12 L)"," "
